[
  {
    "isBrokerLocation": false,
    "company": {
      "name": "Borden Dairy Company",
      "id": 21
    },
    "name": "Borden - Hattiesburg",
    "id": 552
  },
  {
    "isBrokerLocation": false,
    "company": {
      "name": "Borden Dairy Company",
      "id": 21
    },
    "name": "Borden - Dothan",
    "id": 5657
  }
]
