[
  {
    "name": "Alta Dena",
    "id": 922
  },
  {
    "name": "Broughton Foods",
    "id": 925
  },
  {
    "name": "Buena Park (Ice Cream)",
    "id": 931
  },
  {
    "name": "Dairy Fresh - High Point",
    "id": 848
  },
  {
    "name": "DePere",
    "id": 2553
  },
  {
    "name": "Dean Foods Butter Plant",
    "id": 6800
  },
  {
    "name": "Dean Foods of Decatur",
    "id": 5675
  },
  {
    "name": "Dean/Borden - Tulsa",
    "id": 924
  },
  {
    "name": "Frostbite (Ice Cream Only)",
    "id": 934
  },
  {
    "name": "Garelick Farms - Lynn",
    "id": 861
  },
  {
    "name": "Louisville (Dean Milk Co.)",
    "id": 531
  },
  {
    "name": "Mayfield Dairy (Ice Cream) - Birmingham",
    "id": 941
  },
  {
    "name": "Mayfield Dairy - Athens",
    "id": 326
  },
  {
    "name": "Meadow Gold (Ice Cream Only) - Orem ",
    "id": 952
  },
  {
    "name": "Meadow Gold - Englewood",
    "id": 944
  },
  {
    "name": "Meadow Gold - Greeley",
    "id": 947
  },
  {
    "name": "Meadow Gold - North Vegas",
    "id": 948
  },
  {
    "name": "Midwest Ice Cream (Ice Cream)",
    "id": 957
  },
  {
    "name": "Morningstar Northern Illinois Milk - Rockford",
    "id": 964
  },
  {
    "name": "Oak Farms Dallas- East (Schepp's)",
    "id": 974
  },
  {
    "name": "Southwest Ice Cream Specialties",
    "id": 975
  },
  {
    "name": "White Wave - COI",
    "id": 5561
  },
  {
    "name": "White Wave - Dallas",
    "id": 10301
  },
  {
    "name": "White Wave - Jacksonville",
    "id": 658
  },
  {
    "name": "White Wave - Mt. Crawford",
    "id": 659
  },
  {
    "name": "ZProxy Balford Farms",
    "id": 12419
  },
  {
    "name": "ZProxy, Broadacre Dairy",
    "id": 5660
  },
  {
    "name": "ZProxy, Greenwood Ice Cream",
    "id": 5687
  },
  {
    "name": "ZProxy, Jacquins Distillery",
    "id": 5670
  },
  {
    "name": "ZProxy, Leiby's Dairy",
    "id": 5797
  },
  {
    "name": "ZProxy, Wells",
    "id": 5638
  }
]
